{
  "project_info": {
    "project_number": "1043723202743",
    "project_id": "techoandroidapp",
    "storage_bucket": "techoandroidapp.appspot.com"
  },
  "client": [
    {
      "client_info": {
        "mobilesdk_app_id": "1:1043723202743:android:562e4c6819b664a0f3dd32",
        "android_client_info": {
          "package_name": "com.apptecho.androidkotlin"
        }
      },
      "oauth_client": [
        {
          "client_id": "1043723202743-qq41ugj4aeuftb1raqvnc8dg57ah0rj1.apps.googleusercontent.com",
          "client_type": 3
        }
      ],
      "api_key": [
        {
          "current_key": "AIzaSyCXLNUotoXOsgeMOHfU5-iq8BbURWgGvvY"
        }
      ],
      "services": {
        "appinvite_service": {
          "other_platform_oauth_client": [
            {
              "client_id": "1043723202743-qq41ugj4aeuftb1raqvnc8dg57ah0rj1.apps.googleusercontent.com",
              "client_type": 3
            }
          ]
        }
      }
    }
  ],
  "configuration_version": "1"
}